[{
	"_id": "a-10",
	"_parentId": "co-01",
	"_type": "article",
	"_classes": "no-banner-article",
	"body": "",
	"displayTitle": "",
	"title": ""
},
{
	"_id": "a-20",
	"_parentId": "co-02",
	"_type": "article",
	"_classes": "no-banner-article",
	"body": "",
	"displayTitle": "",
	"title": ""
},
{
	"_id": "a-30",
	"_parentId": "co-03",
	"_type": "article",
	"_classes": "no-banner-article",
	"body": "",
	"displayTitle": "",
	"title": ""
},
{
    "_id":"a-35",
    "_parentId":"co-03",
    "_type":"article",
    "_classes":"no-banner-article",
    "title":" ",
    "body":"",
    "_content-blockSlider":{
        "_arrows": {
            "_isActive": true
        },
        "_tabs": {
            "_isActive": true,
            "_useBlockTitle": false
        },
        "_initial": 1
    }
},
{
	 "_id": "a-40",
    "_parentId": "co-04",
    "_type": "article",
    "_classes": "no-banner-article",
    "body": "",
    "displayTitle": "",
    "title": ""
},
{
	"_id": "a-50",
    "_parentId": "co-05",
    "_type": "article",
    "_classes": "no-banner-article",
    "body": "",
    "displayTitle": "",
    "title": ""
},
{	
    "_id": "a-55",
    "_parentId": "co-05",
    "_type": "article",
    "_classes": "gradient_light_blue",
    "title": "a-100",
    "displayTitle": "",
    "body": "",
    "_articleBlockSlider": {
    "_isEnabled": true,
    "_slideAnimationDuration": 600,
    "_heightAnimationDuration": 300,
    "_isEnabledOnScreenSizes": "large",
    "_hasTabs": false,
    "_hasArrows": true,
    "_startIndex": 0,
    "_hasUniformHeight": true,
    "_minHeight": 400
	},
        "_pageLevelProgress": {
            "_isEnabled": false
        }
	},
	{
    "_id": "a-56",
    "_parentId": "co-05",
    "_type": "article",
    "_classes": "no-banner-article",
    "body": "",
    "displayTitle": "",
    "title": ""
},
{	
	"_id": "a-60",
	"_parentId": "co-06",
	"_type": "article",
	"_classes": "no-banner-article",
	"body": "",
	"displayTitle": "",
	"title": ""
},
{
	"_id": "a-70",
	"_parentId": "co-07",
	"_type": "article",
	"_classes": "no-banner-article",
	"body": "",
	"displayTitle": "",
	"title": ""
},
{
	"_id": "a-80",
	"_parentId": "co-08",
	"_type": "article",
	"_classes": "no-banner-article",
	"body": "",
	"displayTitle": "",
	"title": ""
},
{
	"_id": "a-90",
	"_parentId": "co-09",
	"_type": "article",
	"_classes": "no-banner-article",
	"body": "",
	"displayTitle": "",
	"title": ""
}]