﻿[{
	"_id": "co-01",
	"_parentId": "course",
	"height":"570",
	"_type": "page",
	"_graphic": {
		"alt": "",
		"src": "course/en/images/00_contentObjects/landing_01.png"
	},
	"durationLabel": "المدة:",
	"duration": "دقيقتان",
	"_classes": "",
	"displayTitle": "مقدمة",
	"title": "مقدمة",
	"body": "تعرف على كيفية إنشاء تجربة على منصة Messenger لتتمكن من التواصل مع العملاء الحاليين والمحتملين.",
	"linkText": "عرض",
	"_pageLevelProgress": {
			"_isEnabled": true
		}
},
{
	"_id": "co-02",
	"_parentId": "course",
	"height":"570",
	"_type": "page",
	"_graphic": {
		"alt": "",
		"src": "course/en/images/00_contentObjects/landing_02.png"
	},
	"durationLabel": "المدة:",
	"duration": "4 دقائق",
	"_classes": "",
	"displayTitle": "الفهم الجيد للجمهور",
	"title": "الفهم الجيد للجمهور",
	"body": "اطلع على تفاعلاتك مع عملائك ليتسنى لك فهم جمهورك بشكل أفضل.",
	"linkText": "عرض",
	"_pageLevelProgress": {
			"_isEnabled": true
		}
},
{
	"_id": "co-03",
	"_parentId": "course",
	"height":"570",
	"_type": "page",
	"_graphic": {
		"alt": "",
		"src": "course/en/images/00_contentObjects/landing_03.png"
	},
	"durationLabel": "المدة:",
	"duration": "5 دقائق",
	"_classes": "",
	"displayTitle": "تحديد الهدف التجاري ونطاق المشروع",
	"title": "تحديد الهدف التجاري ونطاق المشروع",
	"body": "تعرف على كيفية استخدام Messenger بناءً على هدفك التجاري، بدءًا من رفع مستوى الوعي وصولاً إلى تقديم خدمة العملاء.",
	"linkText": "عرض",
	"_pageLevelProgress": {
			"_isEnabled": true
		}
},
{
	"_id": "co-04",
	"_parentId": "course",
	"height":"570",
	"_type": "page",
	"_graphic": {
		"alt": "",
		"src": "course/en/images/00_contentObjects/landing_04.png"
	},
	"durationLabel": "المدة:",
	"duration": "4 دقائق",
	"_classes": "",
	"displayTitle": "وضع استراتيجية تطوير",
	"title": "وضع استراتيجية تطوير",
	"body": "يجب مراعاة ما إذا كان سيتم إنشاء تجربتك بواسطة فريق داخلي أو تعهيدها إلى فريق خارجي.",
	"linkText": "عرض",
	"_pageLevelProgress": {
			"_isEnabled": true
		}
},
{
	"_id": "co-05",
	"_parentId": "course",
	"height":"570",
	"_type": "page",
	"_graphic": {
		"alt": "",
		"src": "course/en/images/00_contentObjects/landing_05.png"
	},
	"durationLabel": "المدة:",
	"duration": "4 دقائق",
	"_classes": "",
	"displayTitle": "إنشاء تجربتك وتشغيلها",
	"title": "إنشاء تجربتك وتشغيلها",
	"body": "يجب مراعاة هذه الأمور الأربعة أثناء إنشاء تجربتك.",
	"linkText": "عرض",
	"_pageLevelProgress": {
			"_isEnabled": true
		}
},
{
    "_id": "co-06",
	"_parentId": "course",
	"height":"570",
	"_type": "page",
	"_graphic": {
		"alt": "",
		"src": "course/en/images/00_contentObjects/landing_06.png"
	},
	"durationLabel": "المدة:",
	"duration": "4 دقائق",
	"_classes": "",
	"displayTitle": "تشجيع التواصل",
	"title": "تشجيع التواصل",
	"body": "يمكنك التشجيع على الاكتشاف والتفاعل فيما يتعلق بتجربتك على Messenger.",
	"linkText": "عرض",
	"_pageLevelProgress": {
			"_isEnabled": true
		}
},
{
    "_id": "co-07",
	"_parentId": "course",
	"height":"570",
	"_type": "page",
	"_graphic": {
		"alt": "",
		"src": "course/en/images/00_contentObjects/landing_07.png"
	},
	"durationLabel": "المدة:",
	"duration": "4 دقائق",
	"_classes": "",
	"displayTitle": "تهيئة استراتيجية التوفر الدائم",
	"title": "تهيئة استراتيجية التوفر الدائم",
	"body": "يمكنك تحقيق أقصى استفادة من تجربتك من خلال الاختبار والتكرار المستمر.",
	"linkText": "عرض",
	"_pageLevelProgress": {
			"_isEnabled": true
		}
},
{
	"_id": "co-08",
	"_parentId": "course",
	"height":"570",
	"_type": "page",
	"_graphic": {
		"alt": "",
		"src": "course/en/images/00_contentObjects/landing_08.png"
	},
	"durationLabel": "المدة:",
	"duration": "3 دقائق",
	"_classes": "",
	"displayTitle": "قصص النجاح",
	"title": "قصص النجاح",
	"body": "تعرف على كيفية إنشاء الأنشطة التجارية لتجربة ناجحة على منصة Messenger.",
	"linkText": "عرض",
	"_pageLevelProgress": {
			"_isEnabled": true
        		}
},
{
	"_id": "co-09",
	"_parentId": "course",
	"height":"570",
	"_type": "page",
	"_graphic": {
		"alt": "",
		"src": "course/en/images/00_contentObjects/landing_09.png"
	},
	"durationLabel": "المدة:",
	"duration": "3 دقائق",
	"_classes": "",
	"displayTitle": "اختبار مستوى المعرفة",
	"title": "اختبار مستوى المعرفة",
	"body": "خض اختبارًا سريعًا لمعرفة ما تعلمته عن منصة Messenger.",
	"linkText": "عرض",
	"_pageLevelProgress": {
			"_isEnabled": true
		}
}
]